<?xml version="1.0" encoding="utf-8"?>
<!-- Generator: Adobe Illustrator 23.0.0, SVG Export Plug-In . SVG Version: 6.00 Build 0)  -->
<svg version="1.1" id="레이어_1" xmlns="http://www.w3.org/2000/svg" xmlns:xlink="http://www.w3.org/1999/xlink" x="0px"
	 y="0px" viewBox="0 0 192 192" style="enable-background:new 0 0 192 192;" xml:space="preserve">
<path d="M93.3,16C53,17.4,19,50,16.2,90.3C13.2,132.9,43.7,169,84,175v-57.8H71.1c-5.8,0-10.5-4.7-10.5-10.5l0,0
	c0-5.8,4.7-10.5,10.5-10.5H84v-14c0-23.2,11.3-33.3,30.5-33.3c2.9,0,5.3,0.1,7.4,0.2c5.1,0.2,9,4.5,9,9.6l0,0c0,5.3-4.3,9.6-9.6,9.6
	h-3.5c-8.2,0-11,7.8-11,16.5v11.5h15c4.7,0,8.3,4.2,7.6,8.9l-0.9,5.6c-0.6,3.8-3.8,6.5-7.6,6.5h-14.1v58
	c39.1-5.3,69.2-38.7,69.2-79.2C176,50.9,138.7,14.6,93.3,16z"/>
</svg>
