<?xml version="1.0" encoding="utf-8"?>
<!-- Generator: Adobe Illustrator 23.0.0, SVG Export Plug-In . SVG Version: 6.00 Build 0)  -->
<svg version="1.1" id="레이어_1" xmlns="http://www.w3.org/2000/svg" xmlns:xlink="http://www.w3.org/1999/xlink" x="0px"
	 y="0px" viewBox="0 0 192 192" style="enable-background:new 0 0 192 192;" xml:space="preserve">
<style type="text/css">
	.st0{fill:#FFFFFF;}
</style>
<path class="st0" d="M24,40c-4.4-0.1-8.1,3.5-8.1,7.9c-0.1,4.4,3.5,8.1,7.9,8.1c0.1,0,0.2,0,0.2,0h144c4.4,0.1,8.1-3.5,8.1-7.9
	s-3.5-8.1-7.9-8.1c-0.1,0-0.2,0-0.2,0H24z M24,88c-4.4-0.1-8.1,3.5-8.1,7.9c-0.1,4.4,3.5,8.1,7.9,8.1c0.1,0,0.2,0,0.2,0h144
	c4.4,0.1,8.1-3.5,8.1-7.9c0.1-4.4-3.5-8.1-7.9-8.1c-0.1,0-0.2,0-0.2,0H24z M24,136c-4.4-0.1-8.1,3.5-8.1,7.9
	c-0.1,4.4,3.5,8.1,7.9,8.1c0.1,0,0.2,0,0.2,0h144c4.4,0.1,8.1-3.5,8.1-7.9s-3.5-8.1-7.9-8.1c-0.1,0-0.2,0-0.2,0H24z"/>
</svg>
