<?xml version="1.0" encoding="utf-8"?>
<!-- Generator: Adobe Illustrator 23.0.0, SVG Export Plug-In . SVG Version: 6.00 Build 0)  -->
<svg version="1.1" id="레이어_1" xmlns="http://www.w3.org/2000/svg" xmlns:xlink="http://www.w3.org/1999/xlink" x="0px"
	 y="0px" viewBox="0 0 192 192" style="enable-background:new 0 0 192 192;" xml:space="preserve">
<path d="M144,16c-13.3,0-24,10.7-24,24c0,1.5,0.2,3,0.4,4.5L63.5,77.7C59.2,74,53.7,72,48,72c-13.3,0-24,10.7-24,24s10.7,24,24,24
	c5.7,0,11.2-2,15.5-5.7l57,33.2c-0.3,1.5-0.4,3-0.4,4.5c0,13.3,10.7,24,24,24s24-10.7,24-24s-10.7-24-24-24c-5.7,0-11.2,2-15.5,5.7
	l-56.9-33.2c0.3-1.5,0.4-3,0.4-4.5c0-1.5-0.2-3-0.4-4.5l56.9-33.2c4.3,3.7,9.8,5.7,15.5,5.7c13.3,0,24-10.7,24-24S157.3,16,144,16z"
	/>
</svg>
